%YAML 1.1
%TAG !u! tag:unity3d.com,2011:
--- !u!21 &2100000
Material:
  serializedVersion: 6
  m_ObjectHideFlags: 0
  m_CorrespondingSourceObject: {fileID: 0}
  m_PrefabInstance: {fileID: 0}
  m_PrefabAsset: {fileID: 0}
  m_Name: rustig_koppie_4k
  m_Shader: {fileID: 4800000, guid: 5e444cd13928b274babcaedb447ba3ef, type: 3}
  m_ShaderKeywords: _FOGBOTTOM_ON
  m_LightmapFlags: 4
  m_EnableInstancingVariants: 0
  m_DoubleSidedGI: 0
  m_CustomRenderQueue: -1
  stringTagMap: {}
  disabledShaderPasses: []
  m_SavedProperties:
    serializedVersion: 3
    m_TexEnvs:
    - <noninit>:
        m_Texture: {fileID: 0}
        m_Scale: {x: 1, y: 1}
        m_Offset: {x: 0, y: 0}
    - _Tex:
        m_Texture: {fileID: 8900000, guid: 927f1165e7b6f7b49bf1f8dbf6ad7a9d, type: 3}
        m_Scale: {x: 1, y: 1}
        m_Offset: {x: 0, y: 0}
    m_Floats:
    - <noninit>: 0
    - _Exposure: 1
    - _FogBottom: 1
    - _FogEnd: 0.15
    - _FogIntens: 0.5
    - _FogStart: 0
    - _MieIntens: 0.24
    - _MieSize: 0.359
    - _Rotation: 0
    - _SunDir: 40
    m_Colors:
    - <noninit>: {r: 0, g: 2.0182498, b: 1e-45, a: 1.2904559e-15}
    - _FogCol: {r: 0.5411765, g: 0.68235296, b: 0.83921576, a: 0.5}
    - _MieTint: {r: 0.547, g: 0.4889983, b: 0.251073, a: 0.5}
    - _Tint: {r: 0.5, g: 0.5, b: 0.5, a: 0.5}
